%YAML 1.1
%TAG !u! tag:unity3d.com,2011:
--- !u!114 &11400000
MonoBehaviour:
  m_ObjectHideFlags: 0
  m_CorrespondingSourceObject: {fileID: 0}
  m_PrefabInstance: {fileID: 0}
  m_PrefabAsset: {fileID: 0}
  m_GameObject: {fileID: 0}
  m_Enabled: 1
  m_EditorHideFlags: 0
  m_Script: {fileID: 11500000, guid: 52664520015740df8336e885579ef1da, type: 3}
  m_Name: PCDEF
  m_EditorClassIdentifier: 
  _characterReference: PC
  _portrait: {fileID: 21300000, guid: 3d03553eb68e60e43bc060af4f747b44, type: 3}
